3 Spatial statistical analysis | Predicting cell states and their variability in single-cell or spatial omics data
…
gbv.res <- pdac_a_spe |> 
  gsvaExp('CellTypeFree') |> 
  runGLOBALBV(
    features1 = names(markerList),
    assay.type = 1, 
    permutation = NULL, # if permutation is NULL, mantel test will be used to calculated the pvalue
    add.pvalue = TRUE,
    alternative = 'greater' # one-side test 
  )
  
# gbv.res is a list contained Lee and pvalue matrix.
gbv.res |> as_tbl_df(diag=FALSE, flag.clust = TRUE) |> 
  dplyr::filter(grepl("Cancer", x)) |> dplyr::arrange(desc(Lee))
#> # A tibble: 35 × 4
#>    x              y                        Lee   pvalue
#>    <fct>          <fct>                  <dbl>    <dbl>
#>  1 Cancer_clone_A Cancer_clone_B      0.728    0       
#>  2 Cancer_clone_B Fibroblasts         0.185    2.04e-27
#>  3 Cancer_clone_A Fibroblasts         0.180    5.82e-27
#>  4 Cancer_clone_B Endothelial_cells   0.000286 4.99e- 1
#>  5 Cancer_clone_A Endothelial_cells  -0.0169   8.07e- 1
#>  6 Cancer_clone_B T_cells_&_NK_cells -0.0442   9.97e- 1
#>  7 Cancer_clone_A RBCs               -0.0443   9.80e- 1
#>  8 Cancer_clone_B RBCs               -0.0513   9.91e- 1
#>  9 Cancer_clone_A T_cells_&_NK_cells -0.0696   1.00e+ 0
#> 10 Cancer_clone_B Macrophages_A      -0.0773   1.00e+ 0
#> # ℹ 25 more rows
…
